<svg width="48" height="48" viewBox="0 0 48 48" fill="none" xmlns="http://www.w3.org/2000/svg">
<circle cx="24" cy="24" r="23.5" fill="#E27EC0" stroke="#FBF0FB"/>
<circle cx="24.0587" cy="24.0582" r="7.57143" stroke="#FBF0FB" stroke-width="2"/>
</svg>
